{
  "version": 2,
  "data": {
    "ann": {
      "version": "1.1.2"
    },
    "apache-spark": {
      "version": "4.0.0-rc2",
      "gitref": "refs/tags/v4.0.0-rc2",
      "revision": "85188c07519ea809012db24421714bb75b45ab1b",
      "url": "https://github.com/apache/spark/releases/tag/v4.0.0-rc2"
    },
    "aurutils": {
      "version": "20.4",
      "gitref": "refs/tags/20.4",
      "revision": "d78bbd054d327343dc7c6ff00ee9089efc670d81",
      "url": "https://github.com/aurutils/aurutils/releases/tag/20.4"
    },
    "austin-git": {
      "version": "20241017.211143",
      "revision": "94318e13e6f79b56b43a5fb80fe584e7a6aee311",
      "url": "https://github.com/P403n1x87/austin/commit/94318e13e6f79b56b43a5fb80fe584e7a6aee311"
    },
    "austin-tui-git": {
      "version": "20230512.195300",
      "revision": "787448452266cf3cf5680ed52222aa7c3c773310",
      "url": "https://github.com/P403n1x87/austin-tui/commit/787448452266cf3cf5680ed52222aa7c3c773310"
    },
    "auto-cpufreq": {
      "version": "2.5.0",
      "gitref": "refs/tags/v2.5.0",
      "revision": "c0d9ec565a4c78247a4f70beb1c1ae74279673e2",
      "url": "https://github.com/AdnanHodzic/auto-cpufreq/releases/tag/v2.5.0"
    },
    "basedpyright": {
      "version": "1.28.1",
      "url": "https://pypi.org/project/basedpyright/1.28.1/"
    },
    "bibtex-tidy": {
      "version": "1.14.0",
      "url": "https://www.npmjs.com/package/bibtex-tidy/v/1.14.0"
    },
    "blasfeo": {
      "version": "0.1.4.2",
      "gitref": "refs/tags/0.1.4.2",
      "revision": "3f4befd2abf157342a3e0759b6e9f49d56ceb998",
      "url": "https://github.com/giaf/blasfeo/releases/tag/0.1.4.2"
    },
    "blaspp": {
      "version": "2024.10.26",
      "gitref": "refs/tags/v2024.10.26",
      "revision": "b83baa571a78f68ac6f02251b4247c621226b0a5",
      "url": "https://github.com/icl-utk-edu/blaspp/releases/tag/v2024.10.26"
    },
    "boxscout-git": {
      "version": "20250201",
      "revision": "f70dbf678c16d4ba17e837ff084d3e08a879817d",
      "url": "https://gitlab.com/alexfikl/boxscout/-/commit/f70dbf678c16d4ba17e837ff084d3e08a879817d"
    },
    "buku": {
      "version": "4.9",
      "gitref": "refs/tags/v4.9",
      "revision": "0f37f12c5a35adafb358b8e47a7d2cdd9f861fee",
      "url": "https://github.com/jarun/Buku/releases/tag/v4.9"
    },
    "butterflypack": {
      "version": "3.2.0",
      "gitref": "refs/tags/v3.2.0",
      "revision": "cbde1bb675a5bd74b778eb29f6b9dacc0607542c",
      "url": "https://github.com/liuyangzhuan/ButterflyPACK/releases/tag/v3.2.0"
    },
    "cantera": {
      "version": "3.1.0",
      "gitref": "refs/tags/v3.1.0",
      "revision": "d6fb64ccb7d5a4426feaa8ee7ea84cec15298626",
      "url": "https://github.com/Cantera/cantera/releases/tag/v3.1.0"
    },
    "check-manifest": {
      "version": "0.50",
      "gitref": "refs/tags/0.50",
      "revision": "430a68c79573911828e0be90827d46511d7037b4",
      "url": "https://github.com/mgedmin/check-manifest/releases/tag/0.50"
    },
    "checkmake": {
      "version": "0.2.2",
      "gitref": "refs/tags/0.2.2",
      "revision": "48ab7819837d1bdfcbac58e301478a06efebf4a8",
      "url": "https://github.com/mrtazz/checkmake/releases/tag/0.2.2"
    },
    "clfft": {
      "version": "2.12.2",
      "gitref": "refs/tags/v2.12.2",
      "revision": "1e4833f060976971c4df4b54b1b9ad1620aaf1fb",
      "url": "https://github.com/clMathLibraries/clFFT/releases/tag/v2.12.2"
    },
    "cmake-lint": {
      "version": "1.4.3",
      "gitref": "refs/tags/1.4.3",
      "revision": "acef3a10f071a8b449a8f5c017d8572bd853385b",
      "url": "https://github.com/cmake-lint/cmake-lint/releases/tag/1.4.3"
    },
    "cminpack": {
      "version": "1.3.11",
      "gitref": "refs/tags/v1.3.11",
      "revision": "17dab75c6160d2ee42a3c95ea55e94738d7e559d",
      "url": "https://github.com/devernay/cminpack/releases/tag/v1.3.11"
    },
    "cndrvcups-lt-bin": {
      "version": "5.00"
    },
    "cpp-ghc-filesystem": {
      "version": "1.5.14",
      "gitref": "refs/tags/v1.5.14",
      "revision": "8a2edd6d92ed820521d42c94d179462bf06b5ed3",
      "url": "https://github.com/gulrak/filesystem/releases/tag/v1.5.14"
    },
    "cppzmq": {
      "version": "4.10.0",
      "gitref": "refs/tags/v4.10.0",
      "revision": "c94c20743ed7d4aa37835a5c46567ab0790d4acc",
      "url": "https://github.com/zeromq/cppzmq/releases/tag/v4.10.0"
    },
    "cpuid": {
      "version": "20241023"
    },
    "dlib": {
      "version": "19.24.8",
      "gitref": "refs/tags/v19.24.8",
      "revision": "636c0bcd1e4f428d167699891bc12b404d2d1b41",
      "url": "https://github.com/davisking/dlib/releases/tag/v19.24.8"
    },
    "dptf": {
      "version": "9.0.11402+Linux",
      "gitref": "refs/tags/9.0.11402+Linux",
      "revision": "340dbf98d48995249d8a342f70f699eba7b5a78e",
      "url": "https://github.com/intel/dptf/releases/tag/9.0.11402+Linux"
    },
    "dptfxtract": {
      "version": "v1.4.3",
      "gitref": "refs/tags/v1.4.3",
      "revision": "5acb2af34dac10c7886ee149dc3277eb45adb021",
      "url": "https://github.com/intel/dptfxtract/releases/tag/v1.4.3"
    },
    "ducc": {
      "version": "test_tag",
      "revision": "535c11ef95a4d698311b6a1c456582b1e3b1fdaf",
      "url": "https://gitlab.mpcdf.mpg.de/mtr/ducc/-/tags/test_tag"
    },
    "env-modules-tcl": {
      "version": "5.5.0",
      "gitref": "refs/tags/v5.5.0",
      "revision": "3b68dee799c0abb30e315f8b69493c58b0f28c59",
      "url": "https://github.com/cea-hpc/modules/releases/tag/v5.5.0"
    },
    "evcxr_jupyter": {
      "version": "0.19.0",
      "gitref": "refs/tags/v0.19.0",
      "revision": "fcdac75f49dcab3229524e671d4417d36c12130b",
      "url": "https://github.com/evcxr/evcxr/releases/tag/v0.19.0"
    },
    "fheroes2": {
      "version": "1.1.6",
      "gitref": "refs/tags/1.1.6",
      "revision": "0e61e335eed3d0462180f601b59d73b5645e9ac3",
      "url": "https://github.com/ihhub/fheroes2/releases/tag/1.1.6"
    },
    "fntsample": {
      "version": "5.4",
      "gitref": "refs/tags/release/5.4",
      "revision": "c6ae4a3604fa8ea5f7521cb7a104c9af2dcacfe0",
      "url": "https://github.com/eugmes/fntsample/releases/tag/release/5.4"
    },
    "fortitude": {
      "version": "0.7.0",
      "gitref": "refs/tags/v0.7.0",
      "revision": "c2838f45591991171abc823366bb57e791758748",
      "url": "https://github.com/PlasmaFAIR/fortitude/releases/tag/v0.7.0"
    },
    "fprettify": {
      "version": "0.3.7",
      "gitref": "refs/tags/v0.3.7",
      "revision": "71781aaaa0cd513e0e25093a3b69fbdd778e8409",
      "url": "https://github.com/pseewald/fprettify/releases/tag/v0.3.7"
    },
    "fuzzylite": {
      "version": "6.0",
      "gitref": "refs/tags/v6.0",
      "revision": "a49a6e22adf3fa69351d5732f8d42b2d1e08c43a",
      "url": "https://github.com/fuzzylite/fuzzylite/releases/tag/v6.0"
    },
    "fypp": {
      "version": "3.2",
      "gitref": "refs/tags/3.2",
      "revision": "ddcb4ef1ae66d7462e53d1050c2d674ccc064adc",
      "url": "https://github.com/aradi/fypp/releases/tag/3.2"
    },
    "gasnet": {
      "version": "2025.2.1",
      "url": "https://bitbucket.org/berkeleylab/gasnet/commits/tag/gex-2025.2.1"
    },
    "gersemi": {
      "version": "0.19.2",
      "gitref": "refs/tags/0.19.2",
      "revision": "d5a7d835eaa967cd896fb38ef854a85502a54e2c",
      "url": "https://github.com/BlankSpruce/gersemi/releases/tag/0.19.2"
    },
    "gf2-git": {
      "version": "20250311.120557",
      "revision": "338b690d8055c2e92fba51e9440a6b127ec1f485",
      "url": "https://github.com/nakst/gf/commit/338b690d8055c2e92fba51e9440a6b127ec1f485"
    },
    "gmsh": {
      "version": "4.13.1",
      "revision": "3862278e6705ecc0f5d32144289635a34f5d90cb",
      "url": "https://gitlab.onelab.info/gmsh/gmsh/-/tags/gmsh_4_13_1"
    },
    "gomarkablestream": {
      "version": "0.20-beta3",
      "gitref": "refs/tags/v0.20-beta3",
      "revision": "ea209db6ed1637adfc127f201aa394948b8667e3",
      "url": "https://github.com/owulveryck/goMarkableStream/releases/tag/v0.20-beta3"
    },
    "gprof2dot": {
      "version": "2024.06.06",
      "gitref": "refs/tags/2024.06.06",
      "revision": "0b288c15acc9c537c2e1476fc3710c7a29ba8a28",
      "url": "https://github.com/jrfonseca/gprof2dot/releases/tag/2024.06.06"
    },
    "highfive": {
      "version": "3.0.0-beta2",
      "gitref": "refs/tags/v3.0.0-beta2",
      "revision": "ddcf6321a0f2528750d846f681b8f2223106abaf",
      "url": "https://github.com/BlueBrain/HighFive/releases/tag/v3.0.0-beta2"
    },
    "hmat-oss": {
      "version": "1.10.0",
      "gitref": "refs/tags/1.10.0",
      "revision": "b0fd6d4ff743d801efb401e3977026451fa4c906",
      "url": "https://github.com/jeromerobert/hmat-oss/releases/tag/1.10.0"
    },
    "hypre": {
      "version": "2.32.0",
      "gitref": "refs/tags/v2.32.0",
      "revision": "80b4804e61e05fd539fb31b7247f61a61bd01492",
      "url": "https://github.com/hypre-space/hypre/releases/tag/v2.32.0"
    },
    "include-what-you-use": {
      "version": "0.23",
      "gitref": "refs/tags/0.23",
      "revision": "30e221fad0967aa6bcb279600127748ed3dab7ad",
      "url": "https://github.com/include-what-you-use/include-what-you-use/releases/tag/0.23"
    },
    "inflow-git": {
      "version": "20240608.064334",
      "revision": "21763474b57d8a9ee4c5291905e2fd4b2ca8517a",
      "url": "https://github.com/stephen-huan/inflow/commit/21763474b57d8a9ee4c5291905e2fd4b2ca8517a"
    },
    "intel-intercept-layer": {
      "version": "3.0.5",
      "gitref": "refs/tags/v3.0.5",
      "revision": "6afe731cf1b29d592fb54de153bda4c589a5c74d",
      "url": "https://github.com/intel/opencl-intercept-layer/releases/tag/v3.0.5"
    },
    "intel-oclcpuexp-bin": {
      "version": "2024.18.10.0.08"
    },
    "kile-git": {
      "version": "20250314",
      "revision": "7c35526e313f498300e4e4273fdf7f2dbf90c9fc",
      "url": "https://invent.kde.org/office/kile/-/commit/7c35526e313f498300e4e4273fdf7f2dbf90c9fc"
    },
    "kokkos": {
      "version": "4.5.01",
      "gitref": "refs/tags/4.5.01",
      "revision": "55523457a945f3715b4816b492be25449008e10f",
      "url": "https://github.com/kokkos/kokkos/releases/tag/4.5.01"
    },
    "ktikz-git": {
      "version": "20240710.211803",
      "revision": "fe1e34cc75b2bec206b46f8e853d479c48b55282",
      "url": "https://github.com/fhackenberger/ktikz/commit/fe1e34cc75b2bec206b46f8e853d479c48b55282"
    },
    "kwin-karousel": {
      "version": "0.11",
      "gitref": "refs/tags/v0.11",
      "revision": "47f4bbd9b620db23f7b950d8da464b7f884f6af7",
      "url": "https://github.com/peterfajdiga/karousel/releases/tag/v0.11"
    },
    "lapackpp": {
      "version": "2024.10.26",
      "gitref": "refs/tags/v2024.10.26",
      "revision": "da5c6a981bfbc112e03b2fec95e7ba4d5e483443",
      "url": "https://github.com/icl-utk-edu/lapackpp/releases/tag/v2024.10.26"
    },
    "latexrun-git": {
      "version": "20211005.110958",
      "revision": "518c042462057f3285b0a7e6c2bfcb833258e401",
      "url": "https://github.com/ildyria/latexrun/commit/518c042462057f3285b0a7e6c2bfcb833258e401"
    },
    "legion": {
      "version": "24.12.0",
      "gitref": "refs/tags/legion-24.12.0",
      "revision": "481cb4ce0306a127b73b5f452ad0611a5522520d",
      "url": "https://github.com/StanfordLegion/legion/releases/tag/legion-24.12.0"
    },
    "libtree": {
      "version": "3.1.1",
      "gitref": "refs/tags/v3.1.1",
      "revision": "8ba79bee81d1c1dbeed4a92bf970e32da63ad950",
      "url": "https://github.com/haampie/libtree/releases/tag/v3.1.1"
    },
    "mamba": {
      "version": "2.0.5",
      "gitref": "refs/tags/micromamba-2.0.5",
      "revision": "4cbb3f7de08b75a5bffd50fd6b4bb79f0291dd42",
      "url": "https://github.com/mamba-org/mamba/releases/tag/micromamba-2.0.5"
    },
    "mcomix": {
      "version": "3.1.0",
      "gitref": "refs/tags/3.1.0",
      "revision": "6d6ba188e033e0560f866e1bbcd736972db0b1db"
    },
    "metis": {
      "version": "5.1.0",
      "url": "https://bitbucket.org/petsc/pkg-metis/commits/tag/v5.1.0"
    },
    "mkdocs-autorefs": {
      "version": "1.4.1",
      "gitref": "refs/tags/1.4.1",
      "revision": "0ee2b66fc971d163855e8059a979513390dc41ed",
      "url": "https://github.com/mkdocstrings/autorefs/releases/tag/1.4.1"
    },
    "mkdocstrings-python": {
      "version": "1.16.5",
      "gitref": "refs/tags/1.16.5",
      "revision": "b094406506c7634ccefc3408d0044d66e4835452",
      "url": "https://github.com/mkdocstrings/python/releases/tag/1.16.5"
    },
    "mmg": {
      "version": "5.8.0",
      "gitref": "refs/tags/v5.8.0",
      "revision": "95a34f0158942b8dbe047f39d7d82ed8b808a944",
      "url": "https://github.com/MmgTools/mmg/releases/tag/v5.8.0"
    },
    "moar": {
      "version": "1.31.4",
      "gitref": "refs/tags/v1.31.4",
      "revision": "1ac5d5287cbc70addb1015be6de8e6082255e204",
      "url": "https://github.com/walles/moar/releases/tag/v1.31.4"
    },
    "mutationpp": {
      "version": "1.0.5",
      "gitref": "refs/tags/v1.0.5",
      "revision": "8c1c129474239dc172d42ed82310a108aa7bba42",
      "url": "https://github.com/mutationpp/Mutationpp/releases/tag/v1.0.5"
    },
    "mypy": {
      "version": "1.15.0",
      "gitref": "refs/tags/v1.15.0",
      "revision": "9397454fb5aead107461b089e7cf190bf538d20a",
      "url": "https://github.com/python/mypy/releases/tag/v1.15.0"
    },
    "neovim-remote": {
      "version": "2.5.1",
      "gitref": "refs/tags/v2.5.1",
      "revision": "1004d41696a3de12f0911b1949327c3dbe4a62ab",
      "url": "https://github.com/mhinz/neovim-remote/releases/tag/v2.5.1"
    },
    "noise-suppression-for-voice-git": {
      "version": "20240518.144353",
      "revision": "9c4e5c28d8950e2cef837d8a0abd36c2fd9b5c2d",
      "url": "https://github.com/werman/noise-suppression-for-voice/commit/9c4e5c28d8950e2cef837d8a0abd36c2fd9b5c2d"
    },
    "onlyoffice-bin": {
      "version": "v8.3.1",
      "gitref": "refs/tags/v8.3.1",
      "url": "https://github.com/ONLYOFFICE/DesktopEditors/releases/tag/v8.3.1"
    },
    "openturns": {
      "version": "1.24",
      "gitref": "refs/tags/v1.24",
      "revision": "dba65b13248ebbfe1dbc181758866b1037717090",
      "url": "https://github.com/openturns/openturns/releases/tag/v1.24"
    },
    "optimus-manager-git": {
      "version": "20241106.155400",
      "revision": "6b3d3e5e35e65e6ed1188c8b9df8a2555f2ab915",
      "url": "https://github.com/Askannz/optimus-manager/commit/6b3d3e5e35e65e6ed1188c8b9df8a2555f2ab915"
    },
    "osqp": {
      "version": "1.0.0.beta1",
      "gitref": "refs/tags/v1.0.0.beta1",
      "revision": "e5f1e5017c82341ea201247d3bd1fd6254c2665d",
      "url": "https://github.com/osqp/osqp/releases/tag/v1.0.0.beta1"
    },
    "otf-exljbris": {
      "version": "9"
    },
    "p4est": {
      "version": "2.8.6",
      "gitref": "refs/tags/v2.8.6",
      "revision": "8d2c69e607e752463a00dc2138099558896d76d1",
      "url": "https://github.com/cburstedde/p4est/releases/tag/v2.8.6"
    },
    "papi": {
      "version": "7.2.0",
      "gitref": "refs/tags/papi-7-2-0b2-t",
      "revision": "65d15c9480a47812fee07acde4a3c31c90f0b028",
      "url": "https://github.com/icl-utk-edu/papi/releases/tag/papi-7-2-0b2-t"
    },
    "papis-abbrev-git": {
      "version": "20250302.125524",
      "revision": "a60e4410bb5434912d2a7400d29b2f63b0a4fd04",
      "url": "https://github.com/alexfikl/papis-abbrev/commit/a60e4410bb5434912d2a7400d29b2f63b0a4fd04"
    },
    "papis-extras-git": {
      "version": "20250214",
      "revision": "de041fd23d3534d13770a8f45caff7d63455d895",
      "url": "https://gitlab.com/alexfikl/papis-extras/-/commit/de041fd23d3534d13770a8f45caff7d63455d895"
    },
    "papis-git": {
      "version": "20250302.130037",
      "revision": "997af42bae3c4e538c42a4248a55399f22a22c63",
      "url": "https://github.com/papis/papis/commit/997af42bae3c4e538c42a4248a55399f22a22c63"
    },
    "papis-tui-git": {
      "version": "20241015.090556",
      "revision": "43a61c4f62590f53c7896d97ffc1d698f8b118d7",
      "url": "https://github.com/supersambo/papis-tui/commit/43a61c4f62590f53c7896d97ffc1d698f8b118d7"
    },
    "papis-uefiscdi-git": {
      "version": "20250214.182038",
      "revision": "d07543658e87dd2d9308b23f1a012b4ed8a0820d",
      "url": "https://github.com/alexfikl/papis-uefiscdi/commit/d07543658e87dd2d9308b23f1a012b4ed8a0820d"
    },
    "parmetis": {
      "version": "4.0.3",
      "url": "https://bitbucket.org/petsc/pkg-parmetis/commits/tag/v4.0.3"
    },
    "pcloud-drive": {
      "version": "1.14.10-1",
      "url": "https://aur.archlinux.org/packages/pcloud-drive"
    },
    "pcloudcc-git": {
      "version": "20211203.094153",
      "revision": "4b42e3c8a90696ca9ba0a7e162fcbcd62ad2e306",
      "url": "https://github.com/pcloudcom/console-client/commit/4b42e3c8a90696ca9ba0a7e162fcbcd62ad2e306"
    },
    "pdfpc-git": {
      "version": "20250213.122233",
      "revision": "54c40765391177c6da14bd4d453f8a294bcf2e52",
      "url": "https://github.com/pdfpc/pdfpc/commit/54c40765391177c6da14bd4d453f8a294bcf2e52"
    },
    "petsc": {
      "version": "3.22.4",
      "revision": "acdd273352fb8c470d1b112f768a3c3c17a9c41f",
      "url": "https://gitlab.com/petsc/petsc/-/tags/v3.22.4"
    },
    "phonon-qt6-mpv-git": {
      "version": "20240401.110306",
      "revision": "069aca4f09cd3fd37f73c850a0668465999bf5f5",
      "url": "https://github.com/OpenProgger/phonon-mpv/commit/069aca4f09cd3fd37f73c850a0668465999bf5f5"
    },
    "pip-tools": {
      "version": "7.4.1",
      "gitref": "refs/tags/7.4.1",
      "revision": "60ebdf5d1625cb63d0b94326035e0aa209659f4d",
      "url": "https://github.com/jazzband/pip-tools/releases/tag/7.4.1"
    },
    "plasmapack": {
      "version": "24.8.7",
      "gitref": "refs/tags/24.8.7",
      "revision": "55eb9486922259db6ead78db4cf982dd1f899ec5",
      "url": "https://github.com/icl-utk-edu/plasma/releases/tag/24.8.7"
    },
    "pocl-git": {
      "version": "20250313.170207",
      "revision": "8b86d00a3ae0c24ce8c34ba347eb5e0a6ee65cd8",
      "url": "https://github.com/pocl/pocl/commit/8b86d00a3ae0c24ce8c34ba347eb5e0a6ee65cd8"
    },
    "py-spy": {
      "version": "0.4.0",
      "gitref": "refs/tags/v0.4.0",
      "revision": "4affb94cda08fceb04f1dda4725a761a480bd8f7",
      "url": "https://github.com/benfred/py-spy/releases/tag/v0.4.0"
    },
    "pybind11-json": {
      "version": "0.2.15",
      "gitref": "refs/tags/0.2.15",
      "revision": "32043f433ed987b2c2ce99d689ec337bcbd4ba95",
      "url": "https://github.com/pybind/pybind11_json/releases/tag/0.2.15"
    },
    "python-abi3info": {
      "version": "2025.01.09",
      "gitref": "refs/tags/v2025.01.09",
      "revision": "af711aad466c2e6a381dc9d7905b8392b4b21d2c",
      "url": "https://github.com/woodruffw/abi3info/releases/tag/v2025.01.09"
    },
    "python-aiorwlock": {
      "version": "1.5.0",
      "gitref": "refs/tags/v1.5.0",
      "revision": "42eb9aeb7a28768ba5dd8a6c51a6971a316fe166",
      "url": "https://github.com/aio-libs/aiorwlock/releases/tag/v1.5.0"
    },
    "python-arxiv": {
      "version": "2.1.3",
      "gitref": "refs/tags/2.1.3",
      "url": "https://github.com/lukasschwab/arxiv.py/releases/tag/2.1.3"
    },
    "python-astropy": {
      "version": "7.0.1",
      "gitref": "refs/tags/v7.0.1",
      "revision": "18b760c05930468350c983145854f6ec6043be04",
      "url": "https://github.com/astropy/astropy/releases/tag/v7.0.1"
    },
    "python-austin-git": {
      "version": "20231120.125056",
      "revision": "15efbf5df3b8d116736563843bdcace5e4cca561",
      "url": "https://github.com/P403n1x87/austin-python/commit/15efbf5df3b8d116736563843bdcace5e4cca561"
    },
    "python-barcode": {
      "version": "0.15.1",
      "gitref": "refs/tags/v0.15.1",
      "revision": "8766832ed046cc706f99791eb1e2c6376a94da82",
      "url": "https://github.com/WhyNotHugo/python-barcode/releases/tag/v0.15.1"
    },
    "python-blacktex": {
      "version": "0.6.0",
      "gitref": "refs/tags/v0.6.0",
      "revision": "9df96918bd9075ddd659a9e272e16c6426011e31",
      "url": "https://github.com/nschloe/blacktex/releases/tag/v0.6.0"
    },
    "python-borb": {
      "version": "2.1.25",
      "gitref": "refs/tags/v2.1.25",
      "revision": "b7541a022dadf89bc5e2e2933fa402cbc7ac74e7",
      "url": "https://github.com/jorisschellekens/borb/releases/tag/v2.1.25"
    },
    "python-chspy": {
      "version": "1.2.3",
      "gitref": "refs/tags/v1.2.3",
      "revision": "8713fcc528f45b1535410f242fa78c1e12b61d82",
      "url": "https://github.com/neurophysik/CHSPy/releases/tag/v1.2.3"
    },
    "python-citeproc-py": {
      "version": "0.8.2",
      "gitref": "refs/tags/v0.8.2",
      "revision": "db3026d3a10f5d35178c212460602bc494f131d9",
      "url": "https://github.com/brechtm/citeproc-py/releases/tag/v0.8.2"
    },
    "python-darglint": {
      "version": "1.8.1",
      "gitref": "refs/tags/v1.8.1",
      "revision": "abc26b768cd7135d848223ba53f68323593c33d5",
      "url": "https://github.com/terrencepreilly/darglint/releases/tag/v1.8.1"
    },
    "python-dlint": {
      "version": "0.15.0",
      "gitref": "refs/tags/0.15.0",
      "revision": "1c3f0a37b116bffd663a8c4641bde6fc7b8dd138",
      "url": "https://github.com/dlint-py/dlint/releases/tag/0.15.0"
    },
    "python-doc8": {
      "version": "1.1.2",
      "gitref": "refs/tags/v1.1.2",
      "revision": "d66cb70cb8fcb9dbc7f8d3192f38403e1d46b7c3",
      "url": "https://github.com/PyCQA/doc8/releases/tag/v1.1.2"
    },
    "python-docstring-parser-jsh9": {
      "version": "0.0.12",
      "gitref": "refs/tags/0.0.12",
      "revision": "e0afb74a5a4d15f5646355f6558f6518a9569247",
      "url": "https://github.com/jsh9/docstring_parser_fork/releases/tag/0.0.12"
    },
    "python-doi-git": {
      "version": "20230205.212437",
      "revision": "051856058f3917b33f039e803902188f16e511df",
      "url": "https://github.com/papis/python-doi/commit/051856058f3917b33f039e803902188f16e511df"
    },
    "python-etils": {
      "version": "1.12.2",
      "gitref": "refs/tags/v1.12.2",
      "revision": "d052212c91ddadd8d1d47116e3e578dea64b8fc3",
      "url": "https://github.com/google/etils/releases/tag/v1.12.2"
    },
    "python-fil-profiler": {
      "version": "2024.11.2",
      "gitref": "refs/tags/2024.11.2",
      "revision": "ba009c507aa8a9f5a03c6ef3f0afce43023d7fc6",
      "url": "https://github.com/pythonspeed/filprofiler/releases/tag/2024.11.2"
    },
    "python-filetype": {
      "version": "1.2.0",
      "gitref": "refs/tags/v1.2.0",
      "revision": "fbafc02b13ad6fc5cf2306803a271c2b79ddd7ab",
      "url": "https://github.com/h2non/filetype.py/releases/tag/v1.2.0"
    },
    "python-finufft": {
      "version": "2.3.1",
      "gitref": "refs/tags/v2.3.1",
      "revision": "1fea25405c174e34d2ddb793666060c3d79a43d1",
      "url": "https://github.com/flatironinstitute/finufft/releases/tag/v2.3.1"
    },
    "python-fixit": {
      "version": "2.1.0",
      "gitref": "refs/tags/v2.1.0",
      "revision": "acd9b05c744feeaeaf3c3c1b87fc655c7f7929fc",
      "url": "https://github.com/Instagram/Fixit/releases/tag/v2.1.0"
    },
    "python-flake8-bugbear": {
      "version": "24.12.12",
      "gitref": "refs/tags/24.12.12",
      "revision": "3a140377c8f1f585013a1566f2c8bb3ead9c329c",
      "url": "https://github.com/PyCQA/flake8-bugbear/releases/tag/24.12.12"
    },
    "python-flake8-comprehensions": {
      "version": "3.16.0",
      "gitref": "refs/tags/3.16.0",
      "revision": "76bc7c56a791f8e3c173a37cb37da5426aefae91",
      "url": "https://github.com/adamchainz/flake8-comprehensions/releases/tag/3.16.0"
    },
    "python-flake8-deprecated": {
      "version": "2.2.1",
      "gitref": "refs/tags/2.2.1",
      "revision": "d01973ca321b8380384225d7500caf63bcf9b89e",
      "url": "https://github.com/gforcada/flake8-deprecated/releases/tag/2.2.1"
    },
    "python-flake8-no-implicit-concat": {
      "version": "0.3.7",
      "gitref": "refs/tags/v0.3.7",
      "revision": "276025ff4dbbc0a0c73b6d33a45fba3dba3df292",
      "url": "https://github.com/10sr/flake8-no-implicit-concat/releases/tag/v0.3.7"
    },
    "python-flake8-noqa": {
      "version": "1.4.0",
      "gitref": "refs/tags/v1.4.0",
      "revision": "fe5befa49bd210b7c99a3794ad02b8a7190152e5",
      "url": "https://github.com/plinss/flake8-noqa/releases/tag/v1.4.0"
    },
    "python-flake8-pep3101": {
      "version": "2.1.0",
      "gitref": "refs/tags/2.1.0",
      "revision": "3e1be78f5aa87ba27f829b489aaae196d7198711",
      "url": "https://github.com/gforcada/flake8-pep3101/releases/tag/2.1.0"
    },
    "python-flake8-pyproject": {
      "version": "1.2.3",
      "gitref": "refs/tags/1.2.3",
      "revision": "30b8444781d16edd54c11df08210a7c8fb79258d",
      "url": "https://github.com/john-hen/Flake8-pyproject/releases/tag/1.2.3"
    },
    "python-flake8-quotes": {
      "version": "3.4.0",
      "gitref": "refs/tags/3.4.0",
      "revision": "e75accbd40f0e1fa1e8f0e746b93c9766db8f106",
      "url": "https://github.com/zheller/flake8-quotes/releases/tag/3.4.0"
    },
    "python-flake8-rst-docstrings": {
      "version": "0.3.0",
      "gitref": "refs/tags/v0.3.0",
      "revision": "0b9845dcefc916734508a523bf9774de3b818f84",
      "url": "https://github.com/peterjc/flake8-rst-docstrings/releases/tag/v0.3.0"
    },
    "python-flake8-simplify": {
      "version": "0.21.0",
      "gitref": "refs/tags/0.21.0",
      "revision": "7778482c5bf2cac74d26752ea1b217bafabe5e51",
      "url": "https://github.com/MartinThoma/flake8-simplify/releases/tag/0.21.0"
    },
    "python-flake8-spellcheck": {
      "version": "0.28.0-2",
      "gitref": "refs/tags/0.28.0-2",
      "revision": "7abd9d4cdbfea49cb0f080edd78c34f20f0b5c78",
      "url": "https://github.com/MichaelAquilina/flake8-spellcheck/releases/tag/0.28.0-2"
    },
    "python-flynt": {
      "version": "1.0.1",
      "gitref": "refs/tags/1.0.1",
      "revision": "651c822fdcf45fffcf9743dc755085f32acb65e3",
      "url": "https://github.com/ikamensh/flynt/releases/tag/1.0.1"
    },
    "python-fmm3dpy-git": {
      "version": "20241121.160657",
      "revision": "70455e020be1ff64445757cf71ae361f741ea282",
      "url": "https://github.com/flatironinstitute/FMM3D/commit/70455e020be1ff64445757cf71ae361f741ea282"
    },
    "python-fparser": {
      "version": "v0.2.0",
      "gitref": "refs/tags/v0.2.0",
      "revision": "8c870f84edbf1a24dfbc886e2f7226d1b158d50b",
      "url": "https://github.com/stfc/fparser/releases/tag/v0.2.0"
    },
    "python-gpyfft": {
      "version": "0.8.0",
      "gitref": "refs/tags/v0.8.0",
      "revision": "5d07fc8457887c360dbb9dff75b77ee2a1467bf0",
      "url": "https://github.com/geggo/gpyfft/releases/tag/v0.8.0"
    },
    "python-griffe": {
      "version": "1.6.0",
      "gitref": "refs/tags/1.6.0",
      "revision": "e163cfb2ca0234700e18ff3ee1db876af7bcdcb3",
      "url": "https://github.com/mkdocstrings/griffe/releases/tag/1.6.0"
    },
    "python-guppy3": {
      "version": "3.1.5",
      "gitref": "refs/tags/v3.1.5",
      "revision": "b3cf683b54021958812232e8c40e195aeaed4a24",
      "url": "https://github.com/zhuyifei1999/guppy3/releases/tag/v3.1.5"
    },
    "python-habanero": {
      "version": "2.2.0",
      "gitref": "refs/tags/v2.2.0",
      "revision": "5e6473871499474fef1cd1d75c5c766bf5cff715",
      "url": "https://github.com/sckott/habanero/releases/tag/v2.2.0"
    },
    "python-hishel": {
      "version": "0.1.1",
      "gitref": "refs/tags/0.1.1",
      "revision": "4986179b7c41385da0ad79910353c87afa485a53",
      "url": "https://github.com/karpetrosyan/hishel/releases/tag/0.1.1"
    },
    "python-imageio": {
      "version": "2.37.0",
      "gitref": "refs/tags/v2.37.0",
      "revision": "d8c7975558ea9dbebc04658a72446502b0cf968b",
      "url": "https://github.com/imageio/imageio/releases/tag/v2.37.0"
    },
    "python-imageio-ffmpeg": {
      "version": "0.6.0",
      "gitref": "refs/tags/v0.6.0",
      "revision": "ae47d8028c237ca5507ceef1b843ee427b442887",
      "url": "https://github.com/imageio/imageio-ffmpeg/releases/tag/v0.6.0"
    },
    "python-immutables": {
      "version": "0.21",
      "gitref": "refs/tags/v0.21",
      "revision": "1dce756eaaa84d773ac4768ed33f76f0f9e93569",
      "url": "https://github.com/MagicStack/immutables/releases/tag/v0.21"
    },
    "python-importlab": {
      "version": "0.8.1",
      "url": "https://pypi.org/project/importlab/0.8.1/"
    },
    "python-isbnlib": {
      "version": "3.10.14",
      "gitref": "refs/tags/v3.10.14",
      "revision": "a63dbca8ed7054a0cd1df9b3623db28aa9be7070",
      "url": "https://github.com/xlcnd/isbnlib/releases/tag/v3.10.14"
    },
    "python-isbnlib-loc": {
      "version": "1.0.2",
      "gitref": "refs/tags/v1.0.2",
      "revision": "b821048c49f673d3c5449a5901d976075c9dc310",
      "url": "https://github.com/xlcnd/isbnlib-loc/releases/tag/v1.0.2"
    },
    "python-jax": {
      "version": "0.5.2",
      "gitref": "refs/tags/jax-v0.5.2",
      "revision": "c1871230269bec8972994c2cb53d038592bf3965",
      "url": "https://github.com/google/jax/releases/tag/jax-v0.5.2"
    },
    "python-jitcdde": {
      "version": "1.8.2",
      "gitref": "refs/tags/v1.8.2",
      "revision": "613117609dddc2b23dde81e0b27ee86f3210a1ec",
      "url": "https://github.com/neurophysik/jitcdde/releases/tag/v1.8.2"
    },
    "python-jitcxde-common": {
      "version": "1.5.5",
      "gitref": "refs/tags/v1.5.5",
      "revision": "0ec06c7a731547268400c8a564d66699e680c48b",
      "url": "https://github.com/neurophysik/jitcxde_common/releases/tag/v1.5.5"
    },
    "python-libcst": {
      "version": "1.7.0",
      "gitref": "refs/tags/v1.7.0",
      "revision": "5902ccede34e2a6ca5ff3d32ca7e05816029031b",
      "url": "https://github.com/Instagram/LibCST/releases/tag/v1.7.0"
    },
    "python-line-profiler": {
      "version": "4.2.0",
      "gitref": "refs/tags/v4.2.0",
      "revision": "a646bf0f9ab3d15264a1be14d0d4ee6894966f6a",
      "url": "https://github.com/pyutils/line_profiler/releases/tag/v4.2.0"
    },
    "python-matplotx": {
      "version": "0.3.10",
      "gitref": "refs/tags/v0.3.10",
      "revision": "b15352ec2492f2e8351050d233c27b4c6cf22288",
      "url": "https://github.com/nschloe/matplotx/releases/tag/v0.3.10"
    },
    "python-memory-profiler": {
      "version": "0.61",
      "gitref": "refs/tags/v0.61",
      "revision": "f9262590da28ccd4d6ff00755e7bc952f4044a9a",
      "url": "https://github.com/pythonprofilers/memory_profiler/releases/tag/v0.61"
    },
    "python-meshio": {
      "version": "5.3.5",
      "gitref": "refs/tags/v5.3.5",
      "revision": "b2ee99842e119901349fdeee06b5bf61e01f450a",
      "url": "https://github.com/nschloe/meshio/releases/tag/v5.3.5"
    },
    "python-mizani": {
      "version": "0.13.1",
      "gitref": "refs/tags/v0.13.1",
      "revision": "f3a5f0637e340ec2d8918f341f32dbb067f2499e",
      "url": "https://github.com/has2k1/mizani/releases/tag/v0.13.1"
    },
    "python-ml-dtypes": {
      "version": "0.5.2",
      "gitref": "refs/tags/v0.5.2",
      "revision": "f656f18ff3539e289ba9031e5073b094bcf6b340",
      "url": "https://github.com/jax-ml/ml_dtypes/releases/tag/v0.5.2"
    },
    "python-mplcairo": {
      "version": "0.6.1",
      "gitref": "refs/tags/v0.6.1",
      "revision": "758e36a0d258787137bf410644fd31693ad72795",
      "url": "https://github.com/matplotlib/mplcairo/releases/tag/v0.6.1"
    },
    "python-msoffcrypto-tool": {
      "version": "5.4.2",
      "gitref": "refs/tags/v5.4.2",
      "revision": "11aad31b0b72d4ab519ae1c48c1ca727f9b2691c",
      "url": "https://github.com/nolze/msoffcrypto-tool/releases/tag/v5.4.2"
    },
    "python-ninja": {
      "version": "1.11.1.3",
      "gitref": "refs/tags/1.11.1.3",
      "revision": "9acc00faa698ffc24956c97c40c5424a07a948c1",
      "url": "https://github.com/scikit-build/ninja-python-distributions/releases/tag/1.11.1.3"
    },
    "python-npx": {
      "version": "0.1.6",
      "gitref": "refs/tags/v0.1.6",
      "revision": "64431cb45e45730a98c0c62075a92c630e182b74",
      "url": "https://github.com/nschloe/npx/releases/tag/v0.1.6"
    },
    "python-numpy": {
      "version": "2.2.3",
      "gitref": "refs/tags/v2.2.3",
      "revision": "e8e0c1c237b17635e7035e3b9d6a7cbc5a42d038",
      "url": "https://github.com/numpy/numpy/releases/tag/v2.2.3"
    },
    "python-nvidia-ml-py": {
      "version": "12.570.86",
      "url": "https://pypi.org/project/nvidia-ml-py/12.570.86/"
    },
    "python-palettable": {
      "version": "3.3.3",
      "gitref": "refs/tags/v3.3.3",
      "revision": "aaf25c2833de8df3213f027c48abeb0b39d76c2e",
      "url": "https://github.com/jiffyclub/palettable/releases/tag/v3.3.3"
    },
    "python-pep8-naming": {
      "version": "0.14.1",
      "gitref": "refs/tags/0.14.1",
      "revision": "f0edf20bd88cbd0950240ebeeea4fe6f4d90a094",
      "url": "https://github.com/PyCQA/pep8-naming/releases/tag/0.14.1"
    },
    "python-perflint": {
      "version": "0.8.1",
      "gitref": "refs/tags/0.8.1",
      "revision": "22f831509bc7765ce272ad6fcb99398d86a26a52",
      "url": "https://github.com/tonybaloney/perflint/releases/tag/0.8.1"
    },
    "python-perfplot": {
      "version": "0.10.2",
      "gitref": "refs/tags/v0.10.2",
      "revision": "5c43143da93d224baa58c091ca91a00f333e7a8a",
      "url": "https://github.com/nschloe/perfplot/releases/tag/v0.10.2"
    },
    "python-plotdigitizer": {
      "version": "0.3.1",
      "gitref": "refs/tags/v0.3.1",
      "revision": "5f6920c48111d0545f85036bcd4e67b4293a54bc",
      "url": "https://github.com/dilawar/PlotDigitizer/releases/tag/v0.3.1"
    },
    "python-plotnine": {
      "version": "0.14.5",
      "gitref": "refs/tags/v0.14.5",
      "revision": "57c56d72cdc51d44106403da7133da61307e07d0",
      "url": "https://github.com/has2k1/plotnine/releases/tag/v0.14.5"
    },
    "python-polars-bin": {
      "version": "1.24.0",
      "url": "https://pypi.org/project/polars/1.24.0/"
    },
    "python-polib": {
      "version": "1.2.0",
      "gitref": "refs/tags/1.2.0",
      "revision": "7befc259d6ccb47c90d4e812e45685be1042c24c",
      "url": "https://github.com/izimobil/polib/releases/tag/1.2.0"
    },
    "python-pudb-git": {
      "version": "20250205.235935",
      "revision": "58fce0045c56b03bce4a6ab5e25733ff5b84d340",
      "url": "https://github.com/inducer/pudb/commit/58fce0045c56b03bce4a6ab5e25733ff5b84d340"
    },
    "python-pyamg": {
      "version": "5.2.1",
      "gitref": "refs/tags/v5.2.1",
      "revision": "e8065852a620ad238f164368d661e7128d271608",
      "url": "https://github.com/pyamg/pyamg/releases/tag/v5.2.1"
    },
    "python-pybind11-stubgen": {
      "version": "2.5.3",
      "gitref": "refs/tags/v2.5.3",
      "revision": "fda33e7fd82800b34f5e13782e9849a062a7d756",
      "url": "https://github.com/sizmailov/pybind11-stubgen/releases/tag/v2.5.3"
    },
    "python-pybliometrics": {
      "version": "4.2",
      "gitref": "refs/tags/4.2",
      "revision": "a9877291fbc5a037bf910fdb9973954dee81bfd8",
      "url": "https://github.com/pybliometrics-dev/pybliometrics/releases/tag/4.2"
    },
    "python-pyclblast": {
      "version": "1.6.3",
      "gitref": "refs/tags/1.6.3",
      "revision": "2a081972b20911ddf76a6b40df717c7d0c181268",
      "url": "https://github.com/CNugteren/CLBlast/releases/tag/1.6.3"
    },
    "python-pydoclint": {
      "version": "0.6.2",
      "gitref": "refs/tags/0.6.2",
      "revision": "193dc552ea02152d85af6675d10a3e19b66b33fe",
      "url": "https://github.com/jsh9/pydoclint/releases/tag/0.6.2"
    },
    "python-pyerfa": {
      "version": "2.0.1.6",
      "gitref": "refs/tags/v2.0.1.6",
      "revision": "11718de6547579b575e5dafe0e53358c71783f92",
      "url": "https://github.com/liberfa/pyerfa/releases/tag/v2.0.1.6"
    },
    "python-pygmsh": {
      "version": "7.1.17",
      "gitref": "refs/tags/v7.1.17",
      "revision": "1a4118650fab05bbd284eb49c99f9185bdf6a927",
      "url": "https://github.com/nschloe/pygmsh/releases/tag/v7.1.17"
    },
    "python-pyinstrument": {
      "version": "5.0.1",
      "gitref": "refs/tags/v5.0.1",
      "revision": "ca82f64417f01046be3182cb836a0781ae330689",
      "url": "https://github.com/joerick/pyinstrument/releases/tag/v5.0.1"
    },
    "python-pyiso4": {
      "version": "0.1.6",
      "gitref": "refs/tags/v0.1.6",
      "revision": "df3b50f05c6f503047ecdbe946ce3d6cd997cad9",
      "url": "https://github.com/pierre-24/pyiso4/releases/tag/v0.1.6"
    },
    "python-pylatexenc": {
      "version": "2.10",
      "gitref": "refs/tags/v2.10",
      "revision": "f022e2191eb6d5149af7f99c2d243db8560353b3",
      "url": "https://github.com/phfaist/pylatexenc/releases/tag/v2.10"
    },
    "python-pympress": {
      "version": "1.8.5",
      "gitref": "refs/tags/v1.8.5",
      "revision": "81d152a687fcd1d058e0968351f1a497ff7d4150",
      "url": "https://github.com/Cimbali/pympress/releases/tag/v1.8.5"
    },
    "python-pynufft": {
      "version": "2024.1.2",
      "gitref": "refs/tags/2024.1.2",
      "revision": "1c907a3ea118d9a6877f7abf5baf8b82ae9fb639",
      "url": "https://github.com/pynufft/pynufft/releases/tag/2024.1.2"
    },
    "python-pyomo": {
      "version": "6.9.1",
      "gitref": "refs/tags/6.9.1",
      "revision": "a8ef16739d23b31272c0d010a03b5adc3a2cb4e7",
      "url": "https://github.com/Pyomo/pyomo/releases/tag/6.9.1"
    },
    "python-pypdf": {
      "version": "5.3.1",
      "gitref": "refs/tags/5.3.1",
      "revision": "6cae8194a44e990b46c439ea53ac4710e72e6a09",
      "url": "https://github.com/py-pdf/pypdf/releases/tag/5.3.1"
    },
    "python-pyproject-fmt": {
      "version": "2.5.1",
      "gitref": "refs/tags/pyproject-fmt/2.5.1",
      "revision": "c0ef55805c7d4ed0b9e8ea81c4c94734e0a303a5",
      "url": "https://github.com/tox-dev/toml-fmt/releases/tag/pyproject-fmt/2.5.1"
    },
    "python-pyrsistent": {
      "version": "0.20.0",
      "gitref": "refs/tags/v0.20.0",
      "revision": "37da6dbdf967b3f08ca6223e4a404773bf5749a6",
      "url": "https://github.com/tobgu/pyrsistent/releases/tag/v0.20.0"
    },
    "python-pytest-monitor": {
      "version": "1.6.6",
      "gitref": "refs/tags/pytest-monitor-1.6.6",
      "revision": "f11b588354e6362bf08d53974c56927a9308cc1b",
      "url": "https://github.com/CFMTech/pytest-monitor/releases/tag/pytest-monitor-1.6.6"
    },
    "python-pytest-pudb": {
      "version": "0.7.0",
      "url": "https://pypi.org/project/pytest-pudb/0.7.0/"
    },
    "python-pyupgrade": {
      "version": "3.19.1",
      "gitref": "refs/tags/v3.19.1",
      "revision": "ce40a160603ab0e7d9c627ae33d7ef3906e2d2b2",
      "url": "https://github.com/asottile/pyupgrade/releases/tag/v3.19.1"
    },
    "python-pyvista": {
      "version": "0.44.2",
      "gitref": "refs/tags/v0.44.2",
      "revision": "2fa4f7ecd54c113ef3b21e5a68febb9be2627068",
      "url": "https://github.com/pyvista/pyvista/releases/tag/v0.44.2"
    },
    "python-pyvkfft": {
      "version": "2024.1.4",
      "gitref": "refs/tags/2024.1.4",
      "revision": "ad6155f106eaead8c6a16a7936671af4afb8b05a",
      "url": "https://github.com/vincefn/pyvkfft/releases/tag/2024.1.4"
    },
    "python-rapidyaml": {
      "version": "0.8.0",
      "gitref": "refs/tags/v0.8.0",
      "revision": "3c067a6a54b94aae3f722ec1dd07ae4f8fcf74fd",
      "url": "https://github.com/biojppm/rapidyaml/releases/tag/v0.8.0"
    },
    "python-refurb": {
      "version": "2.0.0",
      "gitref": "refs/tags/v2.0.0",
      "revision": "2e31f0033b6c00bf99912fc6a8b5fd00460c9ba0",
      "url": "https://github.com/dosisod/refurb/releases/tag/v2.0.0"
    },
    "python-reikna": {
      "version": "0.9.0",
      "gitref": "refs/tags/v0.9.0",
      "revision": "9a4df0df0e39b7ea631ffd046601fc0a2a6a8d37",
      "url": "https://github.com/fjarri/reikna/releases/tag/v0.9.0"
    },
    "python-restructuredtext-lint": {
      "version": "1.4.0",
      "gitref": "refs/tags/1.4.0",
      "revision": "7017921f4b8e8fb2e1990e4c425cf85b89fb7b00",
      "url": "https://github.com/twolfson/restructuredtext-lint/releases/tag/1.4.0"
    },
    "python-rnc2rng": {
      "version": "2.7.0",
      "gitref": "refs/tags/2.7.0",
      "revision": "eee2790bde0fac77a2ff6d949221e38a06fce694",
      "url": "https://github.com/djc/rnc2rng/releases/tag/2.7.0"
    },
    "python-rply": {
      "version": "0.7.8",
      "gitref": "refs/tags/v0.7.8",
      "revision": "628612b9997b876192eee9baae8431ec9858cb53",
      "url": "https://github.com/alex/rply/releases/tag/v0.7.8"
    },
    "python-rstfmt": {
      "version": "0.0.14",
      "gitref": "refs/tags/v0.0.14",
      "revision": "81e5b5eafe45c61b9d1e2410aa16ae39390ad43d",
      "url": "https://github.com/dzhu/rstfmt/releases/tag/v0.0.14"
    },
    "python-rtoml": {
      "version": "0.12",
      "gitref": "refs/tags/v0.12",
      "revision": "7530a22fc5b59cb9c96bb48f495387f98986703c",
      "url": "https://github.com/samuelcolvin/rtoml/releases/tag/v0.12"
    },
    "python-scalene": {
      "version": "1.5.52",
      "gitref": "refs/tags/v1.5.52",
      "revision": "2b571760fbee1fab78104e55e06de49fc3b52f0d",
      "url": "https://github.com/plasma-umass/scalene/releases/tag/v1.5.52"
    },
    "python-scienceplots": {
      "version": "2.1.1",
      "gitref": "refs/tags/2.1.1",
      "revision": "0ab71c007c6abaaa39f99b945238d834d20b64ea",
      "url": "https://github.com/garrettj403/SciencePlots/releases/tag/2.1.1"
    },
    "python-scikit-fem": {
      "version": "10.0.2",
      "gitref": "refs/tags/10.0.2",
      "revision": "a785c124cccb9cde5476e587eefb25e58eaa9d10",
      "url": "https://github.com/kinnala/scikit-fem/releases/tag/10.0.2"
    },
    "python-scooby": {
      "version": "0.10.0",
      "gitref": "refs/tags/v0.10.0",
      "revision": "b373f384b132fd573a8723009a7c365a436509a9",
      "url": "https://github.com/banesullivan/scooby/releases/tag/v0.10.0"
    },
    "python-setup-cfg-fmt": {
      "version": "2.7.0",
      "gitref": "refs/tags/v2.7.0",
      "revision": "139e728a3204c352e58e595552bacc9ab8f248ea",
      "url": "https://github.com/asottile/setup-cfg-fmt/releases/tag/v2.7.0"
    },
    "python-shtns": {
      "version": "3.7",
      "url": "https://bitbucket.org/nschaeff/shtns/commits/tag/v3.7"
    },
    "python-shtools": {
      "version": "4.13.1",
      "gitref": "refs/tags/v4.13.1",
      "revision": "4c7fd73fd61f863351fdc067294c8538acc70d89",
      "url": "https://github.com/SHTOOLS/SHTOOLS/releases/tag/v4.13.1"
    },
    "python-snakeviz-git": {
      "version": "20241109.221449",
      "revision": "39bcc583820675f5f5fd20d6e9ed273e63b0fbfe",
      "url": "https://github.com/jiffyclub/snakeviz/commit/39bcc583820675f5f5fd20d6e9ed273e63b0fbfe"
    },
    "python-sphinx-book-theme": {
      "version": "1.1.4",
      "gitref": "refs/tags/v1.1.4",
      "revision": "23f6936ae956428463f2ec97eebc2fe68bdd344b",
      "url": "https://github.com/executablebooks/sphinx-book-theme/releases/tag/v1.1.4"
    },
    "python-sphinx-design": {
      "version": "0.6.1",
      "gitref": "refs/tags/v0.6.1",
      "revision": "0b178a9d9face523611fb916440b418c416c05a2",
      "url": "https://github.com/executablebooks/sphinx-design/releases/tag/v0.6.1"
    },
    "python-sphinx-lint": {
      "version": "1.0.0",
      "gitref": "refs/tags/v1.0.0",
      "revision": "ff671d6a030a3141634793e6d1e8909ab6091830",
      "url": "https://github.com/sphinx-contrib/sphinx-lint/releases/tag/v1.0.0"
    },
    "python-sphinx-pydata-theme": {
      "version": "0.16.1",
      "gitref": "refs/tags/v0.16.1",
      "revision": "c47786b993c85f0f442cc8d6e6b55e5d4e92b6b9",
      "url": "https://github.com/pydata/pydata-sphinx-theme/releases/tag/v0.16.1"
    },
    "python-sphinxcontrib-matlab": {
      "version": "0.22.1",
      "gitref": "refs/tags/0.22.1",
      "revision": "dbb3a8c62f835d4a798b146328aa939d1d980d14",
      "url": "https://github.com/sphinx-contrib/matlabdomain/releases/tag/0.22.1"
    },
    "python-sphinxcontrib-tikz": {
      "version": "0.4.20",
      "url": "https://pypi.org/project/sphinxcontrib-tikz/0.4.20/"
    },
    "python-symengine": {
      "version": "0.14.0",
      "gitref": "refs/tags/v0.14.0",
      "revision": "79049aba1b3f7dce8060ed7edcb98e3efd2b117f",
      "url": "https://github.com/symengine/symengine.py/releases/tag/v0.14.0"
    },
    "python-tikzplotlib": {
      "version": "0.10.1",
      "gitref": "refs/tags/v0.10.1",
      "revision": "74b9039f0a429a3e2fa91ebc6754c160da8a1f38",
      "url": "https://github.com/nschloe/tikzplotlib/releases/tag/v0.10.1"
    },
    "python-titlecase": {
      "version": "2.4",
      "gitref": "refs/tags/v2.4",
      "revision": "6ca3b7d3d23b096a56856198d8a644a2af713627",
      "url": "https://github.com/ppannuto/python-titlecase/releases/tag/v2.4"
    },
    "python-toml-fmt-common": {
      "version": "1.0.1",
      "gitref": "refs/tags/1.0.1",
      "revision": "8d46cb241d837f457d062e95cd60d5629e7ba030",
      "url": "https://github.com/tox-dev/toml-fmt-common/releases/tag/1.0.1"
    },
    "python-transforms3d": {
      "version": "0.4.2",
      "gitref": "refs/tags/0.4.2",
      "revision": "44c24e42d1791301fe676c862d59c96d19105d43",
      "url": "https://github.com/matthew-brett/transforms3d/releases/tag/0.4.2"
    },
    "python-trimesh": {
      "version": "4.6.4",
      "gitref": "refs/tags/4.6.4",
      "revision": "9667bc66c4d654e444950939a7077416fa390513",
      "url": "https://github.com/mikedh/trimesh/releases/tag/4.6.4"
    },
    "python-tuna": {
      "version": "0.5.11",
      "gitref": "refs/tags/v0.5.11",
      "revision": "c080340f5f1454e82bdaf57e0cba339dd7ff4e17",
      "url": "https://github.com/nschloe/tuna/releases/tag/v0.5.11"
    },
    "python-types-docutils": {
      "version": "0.21.0.20241128",
      "url": "https://pypi.org/project/types-docutils/0.21.0.20241128/"
    },
    "python-types-psutil": {
      "version": "7.0.0.20250218",
      "url": "https://pypi.org/project/types-psutil/7.0.0.20250218/"
    },
    "python-types-setuptools": {
      "version": "76.0.0.20250313",
      "url": "https://pypi.org/project/types-setuptools/76.0.0.20250313/"
    },
    "python-urwid_readline": {
      "version": "0.15.1",
      "gitref": "refs/tags/0.15.1",
      "revision": "9eee94a2070e45d4845e2d660b686bbcd2acec75",
      "url": "https://github.com/rr-/urwid_readline/releases/tag/0.15.1"
    },
    "python-vedo": {
      "version": "2025.5.3",
      "gitref": "refs/tags/v2025.5.3",
      "revision": "48dd287af8b4502daa227b0e9d612ad8a88fd630",
      "url": "https://github.com/marcomusy/vedo/releases/tag/v2025.5.3"
    },
    "python-vlc": {
      "version": "3.0.21203",
      "url": "https://pypi.org/project/python-vlc/3.0.21203/"
    },
    "python-vmprof-git": {
      "version": "20250212.015344",
      "revision": "0d40e7c0ec3e1127cc82bcef313c9750072c4770",
      "url": "https://github.com/vmprof/vmprof-python/commit/0d40e7c0ec3e1127cc82bcef313c9750072c4770"
    },
    "pytype": {
      "version": "2024.10.11",
      "gitref": "refs/tags/2024.10.11",
      "revision": "ecdf41fb2bd7e1f5362ed4fc68da9210ecd3e87c",
      "url": "https://github.com/google/pytype/releases/tag/2024.10.11"
    },
    "qdldl": {
      "version": "0.1.7",
      "gitref": "refs/tags/v0.1.7",
      "revision": "df481005111f2864770a3eccb05ed4120727eff6",
      "url": "https://github.com/oxfordcontrol/qdldl/releases/tag/v0.1.7"
    },
    "repman": {
      "version": "0.11.7",
      "revision": "8e4020df93263d4062911af5cfd3d142226d31dc",
      "url": "https://gitlab.com/mipimipi/repman/-/tags/0.11.7"
    },
    "repoctl": {
      "version": "0.22.2",
      "gitref": "refs/tags/v0.22.2",
      "revision": "0dbbf15221413afb4c4b33c72646a9ea520b41bc",
      "url": "https://github.com/cassava/repoctl/releases/tag/v0.22.2"
    },
    "reproc": {
      "version": "14.2.5",
      "gitref": "refs/tags/v14.2.5",
      "revision": "3179928ae7b085e41dfb846d987519fa7c12ffb3",
      "url": "https://github.com/DaanDeMeyer/reproc/releases/tag/v14.2.5"
    },
    "riffdiff": {
      "version": "3.3.8",
      "gitref": "refs/tags/3.3.8",
      "revision": "aa1a389a3e2bf4575e946c0c81ffe74ceecff0ed",
      "url": "https://github.com/walles/riff/releases/tag/3.3.8"
    },
    "rmapi": {
      "version": "0.0.25",
      "gitref": "refs/tags/v0.0.25",
      "revision": "639984c95fdbb2083faece0c0cb8eb339043872a",
      "url": "https://github.com/juruen/rmapi/releases/tag/v0.0.25"
    },
    "rua": {
      "version": "0.19.10",
      "gitref": "refs/tags/v0.19.10",
      "revision": "4d0ac5c8e4d57574f25044d39a35e192e2bd1689",
      "url": "https://github.com/vn971/rua/releases/tag/v0.19.10"
    },
    "scalapack": {
      "version": "2.2.2",
      "gitref": "refs/tags/v2.2.2",
      "revision": "6ffdfa7cc728ca3f2d6e32f8731c23f80110f546",
      "url": "https://github.com/Reference-ScaLAPACK/scalapack/releases/tag/v2.2.2"
    },
    "scotch": {
      "version": "7.0.7",
      "revision": "d736fce170ab3dfab7ec368b4d2a9be31d6ccd34",
      "url": "https://gitlab.inria.fr/scotch/scotch/-/tags/v7.0.7"
    },
    "silo": {
      "version": "4.11.1",
      "gitref": "refs/tags/4.11.1",
      "revision": "3f520494ee9519555070c6864e216042cc779776",
      "url": "https://github.com/LLNL/Silo/releases/tag/4.11.1"
    },
    "sleef": {
      "version": "3.8",
      "gitref": "refs/tags/3.8",
      "revision": "5a1d179df9cf652951b59010a2d2075372d67f68",
      "url": "https://github.com/shibatch/sleef/releases/tag/3.8"
    },
    "spectra": {
      "version": "1.1.0",
      "gitref": "refs/tags/v1.1.0",
      "revision": "fef8a396048040a411ed0d880ac7b82d63fb98e3",
      "url": "https://github.com/yixuan/spectra/releases/tag/v1.1.0"
    },
    "spherepack": {
      "version": "20211221.204619",
      "revision": "ab983f0b16170b018770ec3bf70102c55f3fa3d8",
      "url": "https://github.com/NCAR/NCAR-Classic-Libraries-for-Geophysics/commit/ab983f0b16170b018770ec3bf70102c55f3fa3d8"
    },
    "strumpack": {
      "version": "8.0.0",
      "gitref": "refs/tags/v8.0.0",
      "revision": "d27ad04df8d20095173d07f019943adbff2aab20",
      "url": "https://github.com/pghysels/STRUMPACK/releases/tag/v8.0.0"
    },
    "su2": {
      "version": "8.1.0",
      "gitref": "refs/tags/v8.1.0",
      "revision": "a991912e65f927ca9a500cb9600f88c3c739888f",
      "url": "https://github.com/su2code/SU2/releases/tag/v8.1.0"
    },
    "superlu_dist": {
      "version": "9.1.0",
      "gitref": "refs/tags/v9.1.0",
      "revision": "ef8a7c18a5576d1ed8a827b831bb566fc0b2effb",
      "url": "https://github.com/xiaoyeli/superlu_dist/releases/tag/v9.1.0"
    },
    "svg2pdf": {
      "version": "0.13.0",
      "gitref": "refs/tags/v0.13.0",
      "revision": "ccab6d7a3081f512d412dfef456caed2caf3a698",
      "url": "https://github.com/typst/svg2pdf/releases/tag/v0.13.0"
    },
    "symengine": {
      "version": "0.14.0",
      "gitref": "refs/tags/v0.14.0",
      "revision": "fac9314c78f2809570494017efc6603befeb4eda",
      "url": "https://github.com/symengine/symengine/releases/tag/v0.14.0"
    },
    "tailwindcss": {
      "version": "4.0.14",
      "url": "https://www.npmjs.com/package/tailwindcss/v/4.0.14"
    },
    "termcolor": {
      "version": "2.1.0",
      "gitref": "refs/tags/v2.1.0",
      "revision": "1cb2d00656cb265c542a1d4e776df9d34d894248",
      "url": "https://github.com/ikalnytskyi/termcolor/releases/tag/v2.1.0"
    },
    "tex-fmt": {
      "version": "0.5.2",
      "gitref": "refs/tags/v0.5.2",
      "revision": "dec0aed7bf0e38306c9e0d56d098d92928ee069d",
      "url": "https://github.com/WGUNDERWOOD/tex-fmt/releases/tag/v0.5.2"
    },
    "texlive-myriadpro-git": {
      "version": "20170825.131828",
      "revision": "165b4a7d11ad34b64d7457ee6d51af4875e0bf14",
      "url": "https://github.com/sebschub/FontPro/commit/165b4a7d11ad34b64d7457ee6d51af4875e0bf14"
    },
    "tikzit-git": {
      "version": "20230919.095534",
      "revision": "59311ceec7473cb4677ce840104e73cbadd3d0a8",
      "url": "https://github.com/tikzit/tikzit/commit/59311ceec7473cb4677ce840104e73cbadd3d0a8"
    },
    "tmpi": {
      "version": "20220222.102138",
      "revision": "f5a0fd8848b5c87b301edc8a23de9bfcfbd41918",
      "url": "https://github.com/Azrael3000/tmpi/commit/f5a0fd8848b5c87b301edc8a23de9bfcfbd41918"
    },
    "tree-sitter-fortran": {
      "version": "0.5.0",
      "gitref": "refs/tags/v0.5.0",
      "revision": "0f8d3b0bae7d402dee41475acf4bc8b53a6928f4",
      "url": "https://github.com/stadelmanma/tree-sitter-fortran/releases/tag/v0.5.0"
    },
    "triangle": {
      "version": "1.6"
    },
    "vcmi": {
      "version": "1.6.7",
      "gitref": "refs/tags/1.6.7",
      "revision": "dfda6d2626a28576faac0ffbd914c0ecb2b47e84",
      "url": "https://github.com/vcmi/vcmi/releases/tag/1.6.7"
    },
    "viddy": {
      "version": "1.3.0",
      "gitref": "refs/tags/v1.3.0",
      "revision": "1b7493db1addff2dbbd61f7999efb12a78829de9",
      "url": "https://github.com/sachaos/viddy/releases/tag/v1.3.0"
    },
    "vkfft": {
      "version": "1.3.4",
      "gitref": "refs/tags/v1.3.4",
      "revision": "066a17c17068c0f11c9298d848c2976c71fad1c1",
      "url": "https://github.com/DTolm/VkFFT/releases/tag/v1.3.4"
    },
    "xdmf3": {
      "version": "20200723",
      "revision": "04a84bab0eb1568e0f1a27c8fb60c6931efda003",
      "url": "https://gitlab.kitware.com/xdmf/xdmf/-/commit/04a84bab0eb1568e0f1a27c8fb60c6931efda003"
    },
    "xeus": {
      "version": "5.2.0",
      "gitref": "refs/tags/5.2.0",
      "revision": "06308f649af364b874ee09ad9048b38e217f3ea7",
      "url": "https://github.com/jupyter-xeus/xeus/releases/tag/5.2.0"
    },
    "xeus-python": {
      "version": "0.17.2",
      "gitref": "refs/tags/0.17.2",
      "revision": "4dbde10606c9f1861f5b1520a4255b69fcdce88e",
      "url": "https://github.com/jupyter-xeus/xeus-python/releases/tag/0.17.2"
    },
    "xeus-python-shell": {
      "version": "0.6.3",
      "gitref": "refs/tags/0.6.3",
      "revision": "fe47abd59b1ef036043b7e47c7653238c66bdc20",
      "url": "https://github.com/jupyter-xeus/xeus-python-shell/releases/tag/0.6.3"
    },
    "xeus-zmq": {
      "version": "3.1.0",
      "gitref": "refs/tags/3.1.0",
      "revision": "820d022f045479bb5f4921d0d0950f27a6c25306",
      "url": "https://github.com/jupyter-xeus/xeus-zmq/releases/tag/3.1.0"
    },
    "xtl": {
      "version": "0.7.7",
      "gitref": "refs/tags/0.7.7",
      "revision": "8ca971fa5fbb57cfe3ff577fae61ce3da84b0e26",
      "url": "https://github.com/xtensor-stack/xtl/releases/tag/0.7.7"
    },
    "z.lua-git": {
      "version": "20250220.165549",
      "revision": "4bbd0f1e5889f2755438952785a11b7a8222f696",
      "url": "https://github.com/skywind3000/z.lua/commit/4bbd0f1e5889f2755438952785a11b7a8222f696"
    },
    "zlint": {
      "version": "0.7.1",
      "gitref": "refs/tags/v0.7.1",
      "revision": "fbc740922b00266c5aca3d8ac18cb41d0521ff6d",
      "url": "https://github.com/DonIsaac/zlint/releases/tag/v0.7.1"
    },
    "zotero": {
      "version": "7.0.14",
      "gitref": "refs/tags/7.0.14",
      "revision": "3c31068e3a4474265c2aa2edc1cef3f0e1c41550",
      "url": "https://github.com/zotero/zotero/releases/tag/7.0.14"
    }
  }
}
